error[E0271]: type mismatch resolving `<UInt<UInt<UInt<UInt<UInt<UTerm, B1>, B0>, B0>, B0>, B0> as IsGreaterOrEqual<...>>::Output == B1`
  --> tests/fail_cases/invalid_into_primitive.rs:14:20
   |
14 |     let _: u16 = b.into();
   |                    ^^^^ expected `B1`, found `B0`
   |
   = note: required for `u16` to implement `From<UintBitfield<UTerm, UInt<UInt<UInt<UInt<UInt<UTerm, B1>, B0>, B0>, B0>, B1>>>`
   = note: required for `UintBitfield<UTerm, UInt<UInt<UInt<UInt<UInt<UTerm, B1>, B0>, B0>, B0>, B1>>` to implement `Into<u16>`
